Intro to Statistics
…
---
# Step 1: Get the data

```r
## Data is in .sav form (SPSS)
library(haven)
d <- read_spss("Data/Ihno_dataset.sav")
d
```

```
## # A tibble: 100 x 18
##    Sub_num    Gender     Major    Reason  Exp_cond    Coffee Num_cups
##      <dbl> <dbl+lbl> <dbl+lbl> <dbl+lbl> <dbl+lbl> <dbl+lbl>    <dbl>
##  1       1         1         1         3         1         1        0
##  2       2         1         1         2         1         0        0
##  3       3         1         1         1         1         0        0
##  4       4         1         1         1         1         0        0
##  5       5         1         1         1         1         0        1
##  6       6         1         1         1         2         1        1
##  7       7         1         1         1         2         0        0
##  8       8         1         1         3         2         1        2
##  9       9         1         1         1         2         0        0
## 10      10         1         1         1         2         1        2
## # ... with 90 more rows, and 11 more variables: Phobia <dbl>,
## #   Prevmath <dbl>, Mathquiz <dbl+lbl>, Statquiz <dbl>, Exp_sqz <dbl>,
## #   Hr_base <dbl>, Hr_pre <dbl>, Hr_post <dbl>, Anx_base <dbl>,
## #   Anx_pre <dbl>, Anx_post <dbl>
```
…
```r
## install.packages("tidyverse")
library(tidyverse)
d_clean <- d %>%
  mutate(Major = factor(Major, labels = c("Psychology", "Premed",
                                          "Biology", "Sociology",
                                          "Economics"))) %>%
  mutate(Coffee = factor(Coffee))
d_clean
```

```
## # A tibble: 100 x 18
##    Sub_num    Gender      Major    Reason  Exp_cond Coffee Num_cups Phobia
##      <dbl> <dbl+lbl>     <fctr> <dbl+lbl> <dbl+lbl> <fctr>    <dbl>  <dbl>
##  1       1         1 Psychology         3         1      1        0      1
##  2       2         1 Psychology         2         1      0        0      1
##  3       3         1 Psychology         1         1      0        0      4
##  4       4         1 Psychology         1         1      0        0      4
##  5       5         1 Psychology         1         1      0        1     10
##  6       6         1 Psychology         1         2      1        1      4
##  7       7         1 Psychology         1         2      0        0      4
##  8       8         1 Psychology         3         2      1        2      4
##  9       9         1 Psychology         1         2      0        0      4
## 10      10         1 Psychology         1         2      1        2      5
## # ... with 90 more rows, and 10 more variables: Prevmath <dbl>,
## #   Mathquiz <dbl+lbl>, Statquiz <dbl>, Exp_sqz <dbl>, Hr_base <dbl>,
## #   Hr_pre <dbl>, Hr_post <dbl>, Anx_base <dbl>, Anx_pre <dbl>,
## #   Anx_post <dbl>
```

---
# Step 3: Compute new variables/values

```r
d_clean <- d_clean %>%
  mutate(newVar = Mathquiz/2)
```

```
## # A tibble: 100 x 2
##     Mathquiz    newVar
##    <dbl+lbl> <dbl+lbl>
##  1        43      21.5
##  2        49      24.5
##  3        26      13.0
##  4        29      14.5
##  5        31      15.5
##  6        20      10.0
##  7        13       6.5
##  8        23      11.5
##  9        38      19.0
## 10        NA        NA
## # ... with 90 more rows
```
…
